<?xml version="1.0" encoding="utf-8"?>
<!-- Generator: Adobe Illustrator 19.0.0, SVG Export Plug-In . SVG Version: 6.00 Build 0)  -->
<svg version="1.1" id="Capa_1" xmlns="http://www.w3.org/2000/svg" xmlns:xlink="http://www.w3.org/1999/xlink" x="0px" y="0px"
	 viewBox="0 0 116 105.1" style="enable-background:new 0 0 116 105.1;" xml:space="preserve">
<style type="text/css">
	.st0{opacity:0.8;}
	.st1{fill:#FFFFFF;}
</style>
<g id="XMLID_1000_" class="st0">
	<g id="XMLID_20256_">
		<path id="XMLID_20257_" class="st1" d="M96.7,68.5C87.6,76.2,73.6,85.4,58,85.4c-15.5,0-29.6-9.1-38.7-16.8
			c-7.9-6.7-13.5-13.5-15.5-16c2-2.5,7.5-9.2,15.4-16c9.1-7.7,23.2-16.9,38.7-16.9c15.5,0,29.6,9.1,38.7,16.8
			c7.9,6.7,13.5,13.5,15.5,16C110.2,55.1,104.6,61.8,96.7,68.5L96.7,68.5z M115.7,51.6c-0.3-0.4-6.5-8.9-16.8-17.6
			c-6-5.1-12.2-9.2-18.3-12.1C73,18.2,65.4,16.3,58,16.3c-7.4,0-15,1.9-22.7,5.6c-6.1,2.9-12.2,7-18.3,12.1
			C6.9,42.7,0.6,51.2,0.3,51.6c-0.4,0.6-0.4,1.4,0,2c0.3,0.4,6.5,8.9,16.8,17.6c6,5.1,12.2,9.2,18.3,12.1c7.7,3.7,15.3,5.6,22.7,5.6
			c7.4,0,15-1.9,22.7-5.6c6.1-2.9,12.2-7,18.3-12.1c10.2-8.7,16.5-17.2,16.8-17.6C116.1,53,116.1,52.2,115.7,51.6L115.7,51.6z"/>
	</g>
	<path id="XMLID_20260_" class="st1" d="M75.2,33.8c-0.7,0.6-0.7,1.7-0.1,2.4c4.2,4.4,6.6,10.3,6.6,16.4c0,13.1-10.6,23.7-23.7,23.7
		c-13.1,0-23.7-10.6-23.7-23.7S44.9,28.8,58,28.8c4.3,0,8.4,1.1,12.1,3.3c0.8,0.5,1.9,0.2,2.3-0.6c0.5-0.8,0.2-1.9-0.6-2.3
		c-4.2-2.5-8.9-3.8-13.8-3.8c-15,0-27.1,12.2-27.1,27.1S43.1,79.7,58,79.7s27.1-12.2,27.1-27.1c0-7-2.7-13.7-7.5-18.7
		C77,33.1,75.9,33.1,75.2,33.8L75.2,33.8z"/>
	<path id="XMLID_20261_" class="st1" d="M71.7,46.9c1,2.4,0.2,5.3-2.3,8.2c-4.7,5.5-9.5,8.8-11.4,10c-1.9-1.2-6.7-4.5-11.4-10
		c-2.5-2.9-3.3-5.9-2.3-8.2c0.7-1.7,2.4-2.8,4.4-2.9c0.1,0,0.2,0,0.2,0c2.8,0,5.6,2.1,7.6,5.8c0.6,1.2,2.4,1.2,3,0
		c2-3.8,4.9-5.9,7.8-5.8C69.3,44,70.9,45.1,71.7,46.9L71.7,46.9z M58,45.7c-2.6-3.5-5.9-5.3-9.5-5.2c-3.3,0.1-6.1,2-7.3,5
		c-1.6,3.6-0.5,7.9,2.8,11.8c6.4,7.5,12.9,11.1,13.2,11.3c0.5,0.3,1.1,0.3,1.6,0c0.3-0.2,6.7-3.8,13.2-11.3
		c3.3-3.9,4.4-8.2,2.8-11.8c-1.3-2.9-4.1-4.8-7.3-5C63.9,40.4,60.6,42.3,58,45.7L58,45.7z"/>
	<path id="XMLID_20264_" class="st1" d="M58,96.3c-0.9,0-1.7,0.8-1.7,1.7v5.4c0,0.9,0.8,1.7,1.7,1.7c0.9,0,1.7-0.8,1.7-1.7V98
		C59.7,97,59,96.3,58,96.3L58,96.3z"/>
	<path id="XMLID_20265_" class="st1" d="M58,8.9c0.9,0,1.7-0.8,1.7-1.7V1.7C59.7,0.8,59,0,58,0c-0.9,0-1.7,0.8-1.7,1.7v5.4
		C56.3,8.1,57.1,8.9,58,8.9L58,8.9z"/>
	<path id="XMLID_20266_" class="st1" d="M33.8,14.1c0.5,0.9,1.7,1.1,2.5,0.5c0.7-0.5,0.9-1.5,0.5-2.2l-2.7-4.7
		c-0.5-0.8-1.5-1.1-2.3-0.6c-0.8,0.5-1.1,1.5-0.6,2.3L33.8,14.1L33.8,14.1z"/>
	<path id="XMLID_20267_" class="st1" d="M36.2,90.4c-0.8-0.5-1.9-0.2-2.3,0.6l-2.7,4.7c-0.4,0.7-0.2,1.7,0.5,2.2
		c0.8,0.6,2,0.3,2.5-0.5l2.7-4.7C37.3,91.9,37,90.9,36.2,90.4L36.2,90.4z"/>
	<path id="XMLID_20268_" class="st1" d="M82.2,91c-0.5-0.8-1.5-1.1-2.3-0.6c-0.8,0.5-1.1,1.5-0.6,2.3l2.7,4.7
		c0.5,0.9,1.7,1.1,2.5,0.5c0.7-0.5,0.9-1.5,0.5-2.2L82.2,91L82.2,91z"/>
	<path id="XMLID_20269_" class="st1" d="M79.9,14.7c0.8,0.5,1.9,0.2,2.3-0.6l2.7-4.7c0.5-0.8,0.2-1.9-0.6-2.3
		c-0.8-0.5-1.9-0.2-2.3,0.6l-2.7,4.7C78.8,13.2,79,14.2,79.9,14.7L79.9,14.7z"/>
</g>
</svg>
