<?xml version="1.0" encoding="utf-8"?>
<!-- Generator: Adobe Illustrator 16.0.0, SVG Export Plug-In . SVG Version: 6.00 Build 0)  -->
<!DOCTYPE svg PUBLIC "-//W3C//DTD SVG 1.1//EN" "http://www.w3.org/Graphics/SVG/1.1/DTD/svg11.dtd">
<svg version="1.1" id="Capa_1" xmlns="http://www.w3.org/2000/svg" xmlns:xlink="http://www.w3.org/1999/xlink" x="0px" y="0px"
	 width="512.07px" height="396.204px" viewBox="0 0 512.07 396.204" enable-background="new 0 0 512.07 396.204"
	 xml:space="preserve">
<g>
	<defs>
		<rect id="SVGID_1_" width="512.07" height="396.204"/>
	</defs>
	<clipPath id="SVGID_2_">
		<use xlink:href="#SVGID_1_"  overflow="visible"/>
	</clipPath>
	<path clip-path="url(#SVGID_2_)" fill="#FFFFFF" d="M403.123,0.061c17.574,0,34.712,0,51.851,0c14.485,0,28.971-0.031,43.454,0.012
		c9.594,0.028,13.618,4.069,13.624,13.713c0.024,40.956,0.024,81.913,0,122.869c-0.006,9.615-2.931,12.524-12.336,12.524
		c-11.155,0.001-22.312,0.124-33.461-0.138c-1.613-0.038-4.061-1.566-4.645-3.005c-19.43-47.9-38.68-95.873-57.946-143.839
		C403.486,1.754,403.424,1.266,403.123,0.061"/>
	<path clip-path="url(#SVGID_2_)" fill="#FFFFFF" d="M108.484,149.179c-15.463,0-30.621,0-45.779,0
		c-17.166,0-34.332,0.003-51.498-0.002c-7.294-0.002-11.122-3.481-11.138-10.89C-0.022,96.289-0.022,54.291,0.063,12.292
		C0.08,4.609,4.531,0.233,12.289,0.114c11.33-0.173,22.666-0.137,33.995,0.063c1.378,0.025,3.489,1.313,3.981,2.532
		c19.499,48.288,38.85,96.636,58.205,144.982C108.58,147.965,108.484,148.321,108.484,149.179"/>
	<path clip-path="url(#SVGID_2_)" fill="#FFFFFF" d="M42.995,173.545h47.607v192.309c2.79,0,5.047-0.103,7.292,0.019
		c6.873,0.373,10.868,3.799,11.708,10.577c0.404,3.254,0.287,6.676-0.234,9.919c-0.974,6.063-4.752,9.633-10.874,9.69
		c-20.992,0.192-41.987,0.191-62.979,0.003c-6.101-0.054-9.965-3.637-10.911-9.665c-0.534-3.402-0.589-7.002-0.122-10.411
		c0.868-6.327,4.738-9.636,11.095-10.077c2.289-0.158,4.599-0.024,7.418-0.024V173.545z"/>
	<path clip-path="url(#SVGID_2_)" fill="#FFFFFF" d="M425.039,173.537h47.604v192.317c2.78,0,5.041-0.103,7.289,0.02
		c6.858,0.373,10.887,3.83,11.713,10.584c0.398,3.256,0.289,6.68-0.239,9.922c-0.985,6.058-4.771,9.625-10.89,9.681
		c-20.991,0.193-41.987,0.192-62.979,0.001c-6.114-0.056-9.948-3.627-10.892-9.674c-0.53-3.401-0.591-7-0.119-10.406
		c0.878-6.342,4.73-9.634,11.089-10.074c2.288-0.157,4.597-0.024,7.425-0.024V173.537z"/>
	<path clip-path="url(#SVGID_2_)" fill="#FFFFFF" d="M251.069,149.176c-23.746,0-46.715-0.068-69.683,0.076
		c-3.313,0.021-3.648-2.124-4.495-4.232c-15.318-38.091-30.643-76.18-45.966-114.27c-4.016-9.983-8.033-19.965-12.348-30.689h6.504
		c20.646,0,41.292,0.054,61.937-0.06c2.992-0.017,4.74,0.553,5.979,3.663c18.817,47.254,37.779,94.45,56.7,141.663
		C250.122,146.388,250.467,147.479,251.069,149.176"/>
	<path clip-path="url(#SVGID_2_)" fill="#FFFFFF" d="M393.005,149.179c-7.347,0-14.296,0-21.245,0
		c-15.666,0-31.332-0.03-46.997,0.03c-2.472,0.01-4.253-0.17-5.391-3.016c-19.213-48.045-38.548-96.04-57.845-144.051
		c-0.176-0.437-0.193-0.937-0.36-1.797c1.388-0.102,2.631-0.271,3.874-0.272c21.499-0.017,42.998,0.021,64.497-0.055
		c2.565-0.009,4.203,0.396,5.299,3.146c19.032,47.758,38.176,95.472,57.287,143.199
		C392.421,147.104,392.605,147.889,393.005,149.179"/>
</g>
</svg>
